Angelou,EN,CN,27,
Samule,EN,CN,28,
Angelou,EN,HI,32,
Amia,EN,HI,35,
Kaya,EN,FR,37,
Angelou,EN,FR,33,
Oan,CN,HI,31,
Amia,CN,HI,30,
Oan,CN,FR,28,
Angelou,CN,FR,25,
Oan,CN,EN,27,
Kaya,CN,EN,29,
Amia,HI,FR,32,
Oan,HI,FR,33,
Kaya,HI,EN,36,
Angelou,HI,EN,39,
Kaya,HI,CN,41,
Samule,HI,CN,40,
Oan,FR,EN,36,
Amia,FR,EN,33,
Kaya,FR,CN,32,
Angelou,FR,CN,28,
Amia,FR,HI,26,
Samule,FR,HI,24,